..........................
----------------------------------------------------------------------
Ran 26 tests in 0.043s

OK
Name             Stmts   Miss Branch BrPart  Cover   Missing
------------------------------------------------------------
Collatz.py          35      0     12      0   100%
TestCollatz.py     109      0      0      0   100%
------------------------------------------------------------
TOTAL              144      0     12      0   100%
